{
  "0": {
    "user": "SoulfullySue",
    "original_tweet_id": "774205764110000133",
    "reply": "@SoulfullySue, I'd love to help. Can you explain a little bit more about what you're looking for?"
  },
  "1": {
    "user": "OrenTodoros",
    "original_tweet_id": "773846727820443650",
    "reply": "@OrenTodoros, if you haven't got this sorted yet, I might be able to help :)"
  },
  "2": {
    "user": "StefanW",
    "original_tweet_id": "774240222871687168",
    "reply": "@StefanW, I'd love to help. Can you explain a little bit more about what you're looking for?"
  },
  "3": {
    "user": "ASaunders_PGH",
    "original_tweet_id": "774262133056008192",
    "reply": "@ASaunders_PGH, if you're still looking, I might be able to help. Let me know if you want to discuss."
  },
  "4": {
    "user": "Soulecting",
    "original_tweet_id": "774518808006561792",
    "reply": "@Soulecting, I'd love to help. Can you explain a little bit more about what you're looking for?"
  },
  "5": {
    "user": "xoLisaNoel",
    "original_tweet_id": "774747893576052737",
    "reply": "@xoLisaNoel, I might be able to help - I've been doing it for around ten years. :)"
  },
  "6": {
    "user": "suga_mani_",
    "original_tweet_id": "775029920191934464",
    "reply": "@suga_mani_, if you're still looking, I might be able to help. Let me know if you want to discuss."
  },
  "7": {
    "user": "TheJohnGrover",
    "original_tweet_id": "775343766257491969",
    "reply": "@TheJohnGrover, are you still looking for help with this? Let me know if you want to discuss."
  },
  "8": {
    "user": "blaken117",
    "original_tweet_id": "775416278651539456",
    "reply": "@blaken117, I'd love to help. Can you explain a little bit more about what you're looking for?"
  },
  "9": {
    "user": "slambb72",
    "original_tweet_id": "775457028504424448",
    "reply": "@slambb72, I'd love to help. Can you explain a little bit more about what you're looking for?"
  },
  "10": {
    "user": "JodyFlexi_Jo",
    "original_tweet_id": "775517507998326784",
    "reply": "@JodyFlexi_Jo, if you're still looking, I might be able to help. Let me know if you want to discuss."
  },
  "11": {
    "user": "mjassen",
    "original_tweet_id": "775710839814942725",
    "reply": "@mjassen, if you're still looking, I might be able to help. Let me know if you want to discuss."
  },
  "12": {
    "user": "obie_2002",
    "original_tweet_id": "775764861330583552",
    "reply": "@obie_2002, I'd love to help. Can you explain a little bit more about what you're looking for?"
  },
  "13": {
    "user": "Steezysean__",
    "original_tweet_id": "775778568597012480",
    "reply": "@Steezysean__, are you still looking for help with this?"
  },
  "14": {
    "user": "oilsofjoy",
    "original_tweet_id": "776050220975198208",
    "reply": "@oilsofjoy, I might be able to help - I've been doing it for around ten years. :)"
  },
  "15": {
    "user": "KingMikeh",
    "original_tweet_id": "776072582252597248",
    "reply": "@KingMikeh, are you still looking for help with this? Let me know if you want to discuss."
  },
  "16": {
    "user": "Ms_Jones4",
    "original_tweet_id": "776078279254106112",
    "reply": "@Ms_Jones4, are you still looking for help with this? Let me know if you want to discuss."
  },
  "17": {
    "user": "stinkbombcott",
    "original_tweet_id": "776102384774688768",
    "reply": "@stinkbombcott, if you're still looking, I might be able to help. Let me know if you want to discuss."
  },
  "18": {
    "user": "Sixringofsteel",
    "original_tweet_id": "776186066206388225",
    "reply": "@Sixringofsteel, if you're still looking, I might be able to help. Let me know if you want to discuss."
  },
  "19": {
    "user": "THErealCHIM3RA",
    "original_tweet_id": "776216701985624064",
    "reply": "@THErealCHIM3RA, are you still looking for help with this? Let me know if you want to discuss."
  },
  "20": {
    "user": "Aluminum_Iodide",
    "original_tweet_id": "776225798693019648",
    "reply": "@Aluminum_Iodide, I might be able to help - I've been doing it for around ten years. :)"
  },
  "21": {
    "user": "minjoo",
    "original_tweet_id": "776421321928474624",
    "reply": "@minjoo, if you're still looking, I might be able to help. Let me know if you want to discuss."
  },
  "22": {
    "user": "OxjamfestivalSO",
    "original_tweet_id": "776438611126419456",
    "reply": "@OxjamfestivalSO, I might be able to help - I've been doing it for around ten years. :)"
  },
  "23": {
    "user": "ShamLeniMarsh",
    "original_tweet_id": "776453145262030848",
    "reply": "@ShamLeniMarsh, are you still looking for help with this? Let me know if you want to discuss."
  },
  "24": {
    "user": "kylemschwartz",
    "original_tweet_id": "776760660990451712",
    "reply": "@kylemschwartz, I might be able to help - I've been doing it for around ten years. :)"
  },
  "25": {
    "user": "aremadeofthis",
    "original_tweet_id": "776827722286989316",
    "reply": "@aremadeofthis, are you still looking for help with this? Let me know if you want to discuss."
  },
  "26": {
    "user": "SheridanKeen",
    "original_tweet_id": "776853753689468928",
    "reply": "@SheridanKeen, if you're still looking, I might be able to help. Let me know if you want to discuss."
  },
  "27": {
    "user": "hopeihaza",
    "original_tweet_id": "776908508403040257",
    "reply": "@hopeihaza, if you haven't got this sorted yet, I might be able to help :)"
  },
  "28": {
    "user": "Kayla_Lamana",
    "original_tweet_id": "776956104181854208",
    "reply": "@Kayla_Lamana, are you still looking for help with this?"
  },
  "29": {
    "user": "Splatt_Sam",
    "original_tweet_id": "777113194011713536",
    "reply": "@Splatt_Sam, if you're still looking, I might be able to help. Let me know if you want to discuss."
  },
  "30": {
    "user": "DJAWOL88",
    "original_tweet_id": "777492370631827456",
    "reply": "@DJAWOL88, if you haven't got this sorted yet, I might be able to help :)"
  },
  "31": {
    "user": "MonserratQ_",
    "original_tweet_id": "777569500883406848",
    "reply": "@MonserratQ_, are you still looking for help with this? Let me know if you want to discuss."
  },
  "32": {
    "user": "kimberlyannetm",
    "original_tweet_id": "777709304044408832",
    "reply": "@kimberlyannetm, I might be able to help - I've been doing it for around ten years. :)"
  },
  "33": {
    "user": "SuperMusicMag",
    "original_tweet_id": "777810956046905344",
    "reply": "@SuperMusicMag, if you haven't got this sorted yet, I might be able to help :)"
  },
  "34": {
    "user": "CaptainDeagle62",
    "original_tweet_id": "777857905387249664",
    "reply": "@CaptainDeagle62, I might be able to help - I've been doing it for around ten years. :)"
  },
  "35": {
    "user": "quaybay_",
    "original_tweet_id": "777871860742565890",
    "reply": "@quaybay_, I'd love to help. Can you explain a little bit more about what you're looking for?"
  },
  "36": {
    "user": "petyaedwards",
    "original_tweet_id": "777932908568993793",
    "reply": "@petyaedwards, if you haven't got this sorted yet, I might be able to help :)"
  },
  "37": {
    "user": "iammrjuju",
    "original_tweet_id": "778816143934885892",
    "reply": "@iammrjuju, are you still looking for help with this? Let me know if you want to discuss."
  },
  "38": {
    "user": "OscarMbo",
    "original_tweet_id": "778843709853007872",
    "reply": "@OscarMbo, I'd love to help. Can you explain a little bit more about what you're looking for?"
  },
  "39": {
    "user": "KhandiePhoto",
    "original_tweet_id": "779038469716840448",
    "reply": "@KhandiePhoto, I might be able to help - I've been doing it for around ten years. :)"
  },
  "40": {
    "user": "jimmyraygoza",
    "original_tweet_id": "779157177638367232",
    "reply": "@jimmyraygoza, are you still looking for help with this?"
  },
  "41": {
    "user": "NutrAddiction",
    "original_tweet_id": "779161805247672320",
    "reply": "@NutrAddiction, if you haven't got this sorted yet, I might be able to help :)"
  },
  "42": {
    "user": "MsTandile",
    "original_tweet_id": "779211395820822528",
    "reply": "@MsTandile, if you haven't got this sorted yet, I might be able to help :)"
  },
  "43": {
    "user": "whitetizzle",
    "original_tweet_id": "779374361925054464",
    "reply": "@whitetizzle, I might be able to help - I've been doing it for around ten years. :)"
  },
  "44": {
    "user": "randomginger10",
    "original_tweet_id": "779691596480643072",
    "reply": "@randomginger10, I might be able to help - I've been doing it for around ten years. :)"
  },
  "45": {
    "user": "thylorwalker",
    "original_tweet_id": "779722358466703360",
    "reply": "@thylorwalker, are you still looking for help with this?"
  },
  "46": {
    "user": "bappercat",
    "original_tweet_id": "779752813630988289",
    "reply": "@bappercat, are you still looking for help with this? Let me know if you want to discuss."
  },
  "47": {
    "user": "BoDogBrown",
    "original_tweet_id": "779831144124735488",
    "reply": "@BoDogBrown, I'd love to help. Can you explain a little bit more about what you're looking for?"
  },
  "48": {
    "user": "LinkEditzHD",
    "original_tweet_id": "780119518924443648",
    "reply": "@LinkEditzHD, are you still looking for help with this?"
  },
  "49": {
    "user": "Ham_MJ",
    "original_tweet_id": "780233769836015616",
    "reply": "@Ham_MJ, are you still looking for help with this?"
  },
  "50": {
    "user": "pussydave96",
    "original_tweet_id": "780298858999853056",
    "reply": "@pussydave96, if you're still looking, I might be able to help. Let me know if you want to discuss."
  },
  "51": {
    "user": "tralalaladee",
    "original_tweet_id": "780554370362462208",
    "reply": "@tralalaladee, I'd love to help. Can you explain a little bit more about what you're looking for?"
  },
  "52": {
    "user": "Official_cartik",
    "original_tweet_id": "780679348382732288",
    "reply": "@Official_cartik, if you're still looking, I might be able to help. Let me know if you want to discuss."
  },
  "53": {
    "user": "swhittle",
    "original_tweet_id": "780748459330723840",
    "reply": "@swhittle, I might be able to help - I've been doing it for around ten years. :)"
  },
  "54": {
    "user": "pALEXe",
    "original_tweet_id": "780816849625755648",
    "reply": "@pALEXe, I might be able to help - I've been doing it for around ten years. :)"
  },
  "55": {
    "user": "MartinN4T",
    "original_tweet_id": "780892076091334658",
    "reply": "@MartinN4T, I might be able to help - I've been doing it for around ten years. :)"
  },
  "56": {
    "user": "Rhajanai",
    "original_tweet_id": "780945935245283328",
    "reply": "@Rhajanai, I might be able to help - I've been doing it for around ten years. :)"
  },
  "57": {
    "user": "Thembi_Dubazana",
    "original_tweet_id": "781057786838933508",
    "reply": "@Thembi_Dubazana, I'd love to help. Can you explain a little bit more about what you're looking for?"
  },
  "58": {
    "user": "_NoirHoncho",
    "original_tweet_id": "781191752665427968",
    "reply": "@_NoirHoncho, are you still looking for help with this?"
  },
  "59": {
    "user": "ShaToyaMarie",
    "original_tweet_id": "781243090245980160",
    "reply": "@ShaToyaMarie, I'd love to help. Can you explain a little bit more about what you're looking for?"
  },
  "60": {
    "user": "Erika_LajuannX3",
    "original_tweet_id": "781257461734998016",
    "reply": "@Erika_LajuannX3, I'd love to help. Can you explain a little bit more about what you're looking for?"
  },
  "61": {
    "user": "Sbai_mo1",
    "original_tweet_id": "781300960085893124",
    "reply": "@Sbai_mo1, I might be able to help - I've been doing it for around ten years. :)"
  },
  "62": {
    "user": "travelspiritshe",
    "original_tweet_id": "781483261193228289",
    "reply": "@travelspiritshe, I'd love to help. Can you explain a little bit more about what you're looking for?"
  },
  "63": {
    "user": "AjonyeGabriella",
    "original_tweet_id": "781671668569735169",
    "reply": "@AjonyeGabriella, are you still looking for help with this? Let me know if you want to discuss."
  },
  "64": {
    "user": "Mbulelo__K",
    "original_tweet_id": "781819054252290048",
    "reply": "@Mbulelo__K, I might be able to help - I've been doing it for around ten years. :)"
  },
  "65": {
    "user": "JG_QPR",
    "original_tweet_id": "781906697375866881",
    "reply": "@JG_QPR, are you still looking for help with this? Let me know if you want to discuss."
  },
  "66": {
    "user": "kevinbsmith_",
    "original_tweet_id": "781934357049184257",
    "reply": "@kevinbsmith_, if you're still looking, I might be able to help. Let me know if you want to discuss."
  },
  "67": {
    "user": "wayne_jury",
    "original_tweet_id": "782008464847597568",
    "reply": "@wayne_jury, if you haven't got this sorted yet, I might be able to help :)"
  },
  "68": {
    "user": "JamesIntrocaso",
    "original_tweet_id": "782577188658872320",
    "reply": "@JamesIntrocaso, if you haven't got this sorted yet, I might be able to help :)"
  },
  "69": {
    "user": "_tswolf",
    "original_tweet_id": "782859702816370688",
    "reply": "@_tswolf, are you still looking for help with this?"
  },
  "70": {
    "user": "InuaEllams",
    "original_tweet_id": "782940116008505344",
    "reply": "@InuaEllams, if you haven't got this sorted yet, I might be able to help :)"
  },
  "71": {
    "user": "TrillzCannon",
    "original_tweet_id": "782980326306045953",
    "reply": "@TrillzCannon, I'd love to help. Can you explain a little bit more about what you're looking for?"
  },
  "72": {
    "user": "jnmedlin",
    "original_tweet_id": "782981095327408128",
    "reply": "@jnmedlin, are you still looking for help with this?"
  },
  "73": {
    "user": "teehattt",
    "original_tweet_id": "783026944476647425",
    "reply": "@teehattt, I'd love to help. Can you explain a little bit more about what you're looking for?"
  },
  "74": {
    "user": "LeahSarki",
    "original_tweet_id": "783308424415174656",
    "reply": "@LeahSarki, if you haven't got this sorted yet, I might be able to help :)"
  },
  "75": {
    "user": "lil_xtinaa",
    "original_tweet_id": "783380127061118976",
    "reply": "@lil_xtinaa, I might be able to help - I've been doing it for around ten years. :)"
  },
  "76": {
    "user": "TheGiantBeWithU",
    "original_tweet_id": "783442899543453698",
    "reply": "@TheGiantBeWithU, are you still looking for help with this?"
  },
  "77": {
    "user": "Dopeeisme",
    "original_tweet_id": "783453683434610689",
    "reply": "@Dopeeisme, if you haven't got this sorted yet, I might be able to help :)"
  },
  "78": {
    "user": "StormySkyze",
    "original_tweet_id": "783457734335328256",
    "reply": "@StormySkyze, I'd love to help. Can you explain a little bit more about what you're looking for?"
  },
  "79": {
    "user": "kMegan85",
    "original_tweet_id": "783463198426959872",
    "reply": "@kMegan85, are you still looking for help with this?"
  },
  "80": {
    "user": "GloriaLindh",
    "original_tweet_id": "783620671536566272",
    "reply": "@GloriaLindh, are you still looking for help with this?"
  },
  "81": {
    "user": "ArielleCalvo",
    "original_tweet_id": "783650698005209088",
    "reply": "@ArielleCalvo, are you still looking for help with this? Let me know if you want to discuss."
  },
  "82": {
    "user": "MsMercy155",
    "original_tweet_id": "783757552853082113",
    "reply": "@MsMercy155, if you're still looking, I might be able to help. Let me know if you want to discuss."
  },
  "83": {
    "user": "ArsenalGooner53",
    "original_tweet_id": "783909118935306240",
    "reply": "@ArsenalGooner53, are you still looking for help with this?"
  },
  "84": {
    "user": "andreinaBITCHH",
    "original_tweet_id": "784186349733765124",
    "reply": "@andreinaBITCHH, if you haven't got this sorted yet, I might be able to help :)"
  },
  "85": {
    "user": "lefashionfetish",
    "original_tweet_id": "784320570766655488",
    "reply": "@lefashionfetish, are you still looking for help with this?"
  },
  "86": {
    "user": "valinesalomon",
    "original_tweet_id": "784410870487117824",
    "reply": "@valinesalomon, I'd love to help. Can you explain a little bit more about what you're looking for?"
  },
  "87": {
    "user": "SupaGuya",
    "original_tweet_id": "784598659098959873",
    "reply": "@SupaGuya, I might be able to help - I've been doing it for around ten years. :)"
  },
  "88": {
    "user": "kickinglunas",
    "original_tweet_id": "784608078834663425",
    "reply": "@kickinglunas, I'd love to help. Can you explain a little bit more about what you're looking for?"
  },
  "89": {
    "user": "TheMonaLita",
    "original_tweet_id": "784643916872187904",
    "reply": "@TheMonaLita, are you still looking for help with this? Let me know if you want to discuss."
  },
  "90": {
    "user": "fxntomm",
    "original_tweet_id": "784938477678829568",
    "reply": "@fxntomm, I might be able to help - I've been doing it for around ten years. :)"
  },
  "91": {
    "user": "slaughterthepod",
    "original_tweet_id": "785039337813643265",
    "reply": "@slaughterthepod, are you still looking for help with this? Let me know if you want to discuss."
  },
  "92": {
    "user": "weLoveAllah",
    "original_tweet_id": "785160555615121408",
    "reply": "@weLoveAllah, I'd love to help. Can you explain a little bit more about what you're looking for?"
  },
  "93": {
    "user": "FullAccessMC",
    "original_tweet_id": "785263576412000256",
    "reply": "@FullAccessMC, are you still looking for help with this? Let me know if you want to discuss."
  },
  "94": {
    "user": "shawkes2015",
    "original_tweet_id": "785468969117446144",
    "reply": "@shawkes2015, I might be able to help - I've been doing it for around ten years. :)"
  },
  "95": {
    "user": "jakestory_",
    "original_tweet_id": "785487963748794368",
    "reply": "@jakestory_, are you still looking for help with this?"
  },
  "96": {
    "user": "GlassWllowPress",
    "original_tweet_id": "785551427091439616",
    "reply": "@GlassWllowPress, I might be able to help - I've been doing it for around ten years. :)"
  },
  "97": {
    "user": "Sawcasm",
    "original_tweet_id": "785553652576428032",
    "reply": "@Sawcasm, if you haven't got this sorted yet, I might be able to help :)"
  },
  "98": {
    "user": "ItsCodyD",
    "original_tweet_id": "785568688418197504",
    "reply": "@ItsCodyD, if you're still looking, I might be able to help. Let me know if you want to discuss."
  },
  "99": {
    "user": "peterMtan",
    "original_tweet_id": "785791348079067137",
    "reply": "@peterMtan, I might be able to help - I've been doing it for around ten years. :)"
  },
  "100": {
    "user": "I_am_Aaqeelah",
    "original_tweet_id": "785792365080424448",
    "reply": "@I_am_Aaqeelah, I might be able to help - I've been doing it for around ten years. :)"
  },
  "101": {
    "user": "KiLLaForNiaTV",
    "original_tweet_id": "785973048335675392",
    "reply": "@KiLLaForNiaTV, I might be able to help - I've been doing it for around ten years. :)"
  },
  "102": {
    "user": "andrewnhem",
    "original_tweet_id": "785993992223633409",
    "reply": "@andrewnhem, are you still looking for help with this? Let me know if you want to discuss."
  },
  "103": {
    "user": "TheReviDev",
    "original_tweet_id": "786023112987074560",
    "reply": "@TheReviDev, are you still looking for help with this?"
  },
  "104": {
    "user": "muzzashow",
    "original_tweet_id": "786027995588730880",
    "reply": "@muzzashow, if you haven't got this sorted yet, I might be able to help :)"
  },
  "105": {
    "user": "BryanCaragay",
    "original_tweet_id": "786311848371052544",
    "reply": "@BryanCaragay, if you haven't got this sorted yet, I might be able to help :)"
  },
  "106": {
    "user": "Souke",
    "original_tweet_id": "786345657074323456",
    "reply": "@Souke, if you're still looking, I might be able to help. Let me know if you want to discuss."
  },
  "107": {
    "user": "teamswapspace",
    "original_tweet_id": "786477798407806976",
    "reply": "@teamswapspace, I might be able to help - I've been doing it for around ten years. :)"
  },
  "108": {
    "user": "DJRatus",
    "original_tweet_id": "786492576287297536",
    "reply": "@DJRatus, are you still looking for help with this? Let me know if you want to discuss."
  },
  "109": {
    "user": "2coolcounselor",
    "original_tweet_id": "786589159783739392",
    "reply": "@2coolcounselor, are you still looking for help with this? Let me know if you want to discuss."
  },
  "110": {
    "user": "vedimaggio",
    "original_tweet_id": "786652674280259585",
    "reply": "@vedimaggio, I might be able to help - I've been doing it for around ten years. :)"
  },
  "111": {
    "user": "cheojackson",
    "original_tweet_id": "786700431976177665",
    "reply": "@cheojackson, if you're still looking, I might be able to help. Let me know if you want to discuss."
  },
  "112": {
    "user": "phantasyftw",
    "original_tweet_id": "786725573506768896",
    "reply": "@phantasyftw, are you still looking for help with this?"
  },
  "113": {
    "user": "Fxllcon",
    "original_tweet_id": "786742689727262721",
    "reply": "@Fxllcon, I'd love to help. Can you explain a little bit more about what you're looking for?"
  },
  "114": {
    "user": "clairemerquita",
    "original_tweet_id": "786751103555760128",
    "reply": "@clairemerquita, if you haven't got this sorted yet, I might be able to help :)"
  },
  "115": {
    "user": "BaeSickGuy",
    "original_tweet_id": "786805007270105088",
    "reply": "@BaeSickGuy, I'd love to help. Can you explain a little bit more about what you're looking for?"
  },
  "116": {
    "user": "LBeversdorf",
    "original_tweet_id": "786920346746228736",
    "reply": "@LBeversdorf, I'd love to help. Can you explain a little bit more about what you're looking for?"
  },
  "117": {
    "user": "kid_for_today",
    "original_tweet_id": "787014129458503681",
    "reply": "@kid_for_today, are you still looking for help with this? Let me know if you want to discuss."
  },
  "118": {
    "user": "Soppy877",
    "original_tweet_id": "787223905643728896",
    "reply": "@Soppy877, I'd love to help. Can you explain a little bit more about what you're looking for?"
  },
  "119": {
    "user": "MsNessaJackson",
    "original_tweet_id": "787242720125476864",
    "reply": "@MsNessaJackson, I'd love to help. Can you explain a little bit more about what you're looking for?"
  },
  "120": {
    "user": "All_Caulle",
    "original_tweet_id": "787669848625078273",
    "reply": "@All_Caulle, if you're still looking, I might be able to help. Let me know if you want to discuss."
  },
  "121": {
    "user": "OgAnt",
    "original_tweet_id": "788013674048917504",
    "reply": "@OgAnt, I might be able to help - I've been doing it for around ten years. :)"
  },
  "122": {
    "user": "TylerAtTheAxis",
    "original_tweet_id": "788098228944183296",
    "reply": "@TylerAtTheAxis, are you still looking for help with this?"
  },
  "123": {
    "user": "claytonhopkins",
    "original_tweet_id": "788480139118022656",
    "reply": "@claytonhopkins, are you still looking for help with this? Let me know if you want to discuss."
  },
  "124": {
    "user": "RalphJ3nnings",
    "original_tweet_id": "788491002667491328",
    "reply": "@RalphJ3nnings, if you haven't got this sorted yet, I might be able to help :)"
  },
  "125": {
    "user": "jenniferalaine",
    "original_tweet_id": "788494229177630720",
    "reply": "@jenniferalaine, if you're still looking, I might be able to help. Let me know if you want to discuss."
  },
  "126": {
    "user": "Leek312",
    "original_tweet_id": "788511721124016128",
    "reply": "@Leek312, if you're still looking, I might be able to help. Let me know if you want to discuss."
  },
  "127": {
    "user": "sethfri",
    "original_tweet_id": "788533472637784064",
    "reply": "@sethfri, I might be able to help - I've been doing it for around ten years. :)"
  },
  "128": {
    "user": "nadxanwar",
    "original_tweet_id": "788663161490591744",
    "reply": "@nadxanwar, if you're still looking, I might be able to help. Let me know if you want to discuss."
  },
  "129": {
    "user": "cherylrubman",
    "original_tweet_id": "788758691805732864",
    "reply": "@cherylrubman, are you still looking for help with this? Let me know if you want to discuss."
  },
  "130": {
    "user": "SheReports",
    "original_tweet_id": "788797083742416896",
    "reply": "@SheReports, if you haven't got this sorted yet, I might be able to help :)"
  },
  "131": {
    "user": "allisonmkeating",
    "original_tweet_id": "788808172920201216",
    "reply": "@allisonmkeating, are you still looking for help with this? Let me know if you want to discuss."
  },
  "132": {
    "user": "WORK_OF_ART_21",
    "original_tweet_id": "788822536800919552",
    "reply": "@WORK_OF_ART_21, if you're still looking, I might be able to help. Let me know if you want to discuss."
  },
  "133": {
    "user": "YourNestProps",
    "original_tweet_id": "788822769437962240",
    "reply": "@YourNestProps, I'd love to help. Can you explain a little bit more about what you're looking for?"
  },
  "134": {
    "user": "INmarketingOz",
    "original_tweet_id": "788835736661483520",
    "reply": "@INmarketingOz, if you're still looking, I might be able to help. Let me know if you want to discuss."
  },
  "135": {
    "user": "girlDevelopItLA",
    "original_tweet_id": "788839172039643141",
    "reply": "@girlDevelopItLA, I'd love to help. Can you explain a little bit more about what you're looking for?"
  },
  "136": {
    "user": "ryanrod42",
    "original_tweet_id": "788929804208738304",
    "reply": "@ryanrod42, if you haven't got this sorted yet, I might be able to help :)"
  },
  "137": {
    "user": "es_nailsbyFe",
    "original_tweet_id": "789131455989477376",
    "reply": "@es_nailsbyFe, I'd love to help. Can you explain a little bit more about what you're looking for?"
  },
  "138": {
    "user": "samtripoli",
    "original_tweet_id": "789163728495267840",
    "reply": "@samtripoli, I'd love to help. Can you explain a little bit more about what you're looking for?"
  },
  "139": {
    "user": "SuckaFree_Dee",
    "original_tweet_id": "789232257559134208",
    "reply": "@SuckaFree_Dee, are you still looking for help with this?"
  },
  "140": {
    "user": "just2freesh",
    "original_tweet_id": "789324023289217024",
    "reply": "@just2freesh, I'd love to help. Can you explain a little bit more about what you're looking for?"
  },
  "141": {
    "user": "secretscent_aus",
    "original_tweet_id": "789423231362961408",
    "reply": "@secretscent_aus, if you're still looking, I might be able to help. Let me know if you want to discuss."
  },
  "142": {
    "user": "lonelyspeck",
    "original_tweet_id": "789452762379542528",
    "reply": "@lonelyspeck, I'd love to help. Can you explain a little bit more about what you're looking for?"
  },
  "143": {
    "user": "ImDavidLamar",
    "original_tweet_id": "789505068395560960",
    "reply": "@ImDavidLamar, I'd love to help. Can you explain a little bit more about what you're looking for?"
  },
  "144": {
    "user": "FreelanceJobs16",
    "original_tweet_id": "789608140102926337",
    "reply": "@FreelanceJobs16, if you haven't got this sorted yet, I might be able to help :)"
  },
  "145": {
    "user": "thoroughbredkev",
    "original_tweet_id": "789828784413376517",
    "reply": "@thoroughbredkev, if you're still looking, I might be able to help. Let me know if you want to discuss."
  },
  "146": {
    "user": "Kingdom_Rolland",
    "original_tweet_id": "789843448161378305",
    "reply": "@Kingdom_Rolland, if you're still looking, I might be able to help. Let me know if you want to discuss."
  },
  "147": {
    "user": "AOTN091",
    "original_tweet_id": "790037005308526592",
    "reply": "@AOTN091, are you still looking for help with this? Let me know if you want to discuss."
  },
  "148": {
    "user": "andreaminoza",
    "original_tweet_id": "790129428994994177",
    "reply": "@andreaminoza, I might be able to help - I've been doing it for around ten years. :)"
  },
  "149": {
    "user": "nessarod",
    "original_tweet_id": "790335324824018944",
    "reply": "@nessarod, are you still looking for help with this?"
  },
  "150": {
    "user": "DyIanSmith",
    "original_tweet_id": "790342903285555201",
    "reply": "@DyIanSmith, are you still looking for help with this?"
  },
  "151": {
    "user": "Revelation_RD",
    "original_tweet_id": "790530477639733248",
    "reply": "@Revelation_RD, I might be able to help - I've been doing it for around ten years. :)"
  },
  "152": {
    "user": "TRIPLEOGPOPS",
    "original_tweet_id": "790558369786527744",
    "reply": "@TRIPLEOGPOPS, are you still looking for help with this?"
  },
  "153": {
    "user": "TFRESH00",
    "original_tweet_id": "790673805291229184",
    "reply": "@TFRESH00, I'd love to help. Can you explain a little bit more about what you're looking for?"
  },
  "154": {
    "user": "KTHEIS_33",
    "original_tweet_id": "790717259245158400",
    "reply": "@KTHEIS_33, I'd love to help. Can you explain a little bit more about what you're looking for?"
  },
  "155": {
    "user": "bradindigital",
    "original_tweet_id": "790753001975771136",
    "reply": "@bradindigital, if you're still looking, I might be able to help. Let me know if you want to discuss."
  },
  "156": {
    "user": "JordanRashad5",
    "original_tweet_id": "791153113638039552",
    "reply": "@JordanRashad5, if you haven't got this sorted yet, I might be able to help :)"
  },
  "157": {
    "user": "cynthiasaysyo",
    "original_tweet_id": "791352473537699841",
    "reply": "@cynthiasaysyo, I'd love to help. Can you explain a little bit more about what you're looking for?"
  },
  "158": {
    "user": "dubskinclinic",
    "original_tweet_id": "791397770972237824",
    "reply": "@dubskinclinic, I might be able to help - I've been doing it for around ten years. :)"
  },
  "159": {
    "user": "justinshaunchua",
    "original_tweet_id": "791496507555840000",
    "reply": "@justinshaunchua, I'd love to help. Can you explain a little bit more about what you're looking for?"
  },
  "160": {
    "user": "jonnystannard",
    "original_tweet_id": "791540187776049152",
    "reply": "@jonnystannard, are you still looking for help with this?"
  },
  "161": {
    "user": "martiallah",
    "original_tweet_id": "791995848909611016",
    "reply": "@martiallah, are you still looking for help with this?"
  },
  "162": {
    "user": "HotspurLane",
    "original_tweet_id": "792058613430947844",
    "reply": "@HotspurLane, if you haven't got this sorted yet, I might be able to help :)"
  },
  "163": {
    "user": "sensonize",
    "original_tweet_id": "792086211489886208",
    "reply": "@sensonize, are you still looking for help with this? Let me know if you want to discuss."
  },
  "164": {
    "user": "T_Streetsz",
    "original_tweet_id": "792829457090351104",
    "reply": "@T_Streetsz, are you still looking for help with this?"
  },
  "165": {
    "user": "TheLordDave",
    "original_tweet_id": "792889288715231232",
    "reply": "@TheLordDave, are you still looking for help with this?"
  },
  "166": {
    "user": "ShootWill",
    "original_tweet_id": "792984126924034049",
    "reply": "@ShootWill, I might be able to help - I've been doing it for around ten years. :)"
  },
  "167": {
    "user": "CMEWebsites",
    "original_tweet_id": "793213542253993984",
    "reply": "@CMEWebsites, are you still looking for help with this? Let me know if you want to discuss."
  },
  "168": {
    "user": "galacticKMac",
    "original_tweet_id": "793268646877495297",
    "reply": "@galacticKMac, I might be able to help - I've been doing it for around ten years. :)"
  },
  "169": {
    "user": "gaelicstats",
    "original_tweet_id": "793445732208508932",
    "reply": "@gaelicstats, are you still looking for help with this? Let me know if you want to discuss."
  },
  "170": {
    "user": "AdamLoebSmall",
    "original_tweet_id": "793517139835559936",
    "reply": "@AdamLoebSmall, I'd love to help. Can you explain a little bit more about what you're looking for?"
  },
  "171": {
    "user": "CranberryBlue_",
    "original_tweet_id": "793752268365500416",
    "reply": "@CranberryBlue_, if you're still looking, I might be able to help. Let me know if you want to discuss."
  },
  "172": {
    "user": "AmyRebair",
    "original_tweet_id": "793812244958150656",
    "reply": "@AmyRebair, if you haven't got this sorted yet, I might be able to help :)"
  },
  "173": {
    "user": "ibeonsumflyshit",
    "original_tweet_id": "793881623406252033",
    "reply": "@ibeonsumflyshit, if you haven't got this sorted yet, I might be able to help :)"
  },
  "174": {
    "user": "SaveAslave",
    "original_tweet_id": "793982257409114113",
    "reply": "@SaveAslave, are you still looking for help with this?"
  },
  "175": {
    "user": "xZyndi",
    "original_tweet_id": "794018638500163584",
    "reply": "@xZyndi, I might be able to help - I've been doing it for around ten years. :)"
  },
  "176": {
    "user": "MadQuills",
    "original_tweet_id": "794177181501063168",
    "reply": "@MadQuills, I might be able to help - I've been doing it for around ten years. :)"
  },
  "177": {
    "user": "SarenMeas",
    "original_tweet_id": "794260023803146241",
    "reply": "@SarenMeas, if you haven't got this sorted yet, I might be able to help :)"
  },
  "178": {
    "user": "Fra9nk",
    "original_tweet_id": "794283129737506818",
    "reply": "@Fra9nk, I might be able to help - I've been doing it for around ten years. :)"
  },
  "179": {
    "user": "pat_mcintire",
    "original_tweet_id": "794344857707970560",
    "reply": "@pat_mcintire, if you're still looking, I might be able to help. Let me know if you want to discuss."
  },
  "180": {
    "user": "MOZZIEMUTANT",
    "original_tweet_id": "794531274757210116",
    "reply": "@MOZZIEMUTANT, I'd love to help. Can you explain a little bit more about what you're looking for?"
  },
  "181": {
    "user": "gomescharlotte",
    "original_tweet_id": "794639094533984257",
    "reply": "@gomescharlotte, I might be able to help - I've been doing it for around ten years. :)"
  },
  "182": {
    "user": "iphsniper",
    "original_tweet_id": "794738553687339008",
    "reply": "@iphsniper, I'd love to help. Can you explain a little bit more about what you're looking for?"
  },
  "183": {
    "user": "alphaknight911",
    "original_tweet_id": "795043483090382849",
    "reply": "@alphaknight911, if you haven't got this sorted yet, I might be able to help :)"
  },
  "184": {
    "user": "frostyrost",
    "original_tweet_id": "795478535062228992",
    "reply": "@frostyrost, I'd love to help. Can you explain a little bit more about what you're looking for?"
  },
  "185": {
    "user": "NikiJilvontae31",
    "original_tweet_id": "795625475666223104",
    "reply": "@NikiJilvontae31, are you still looking for help with this? Let me know if you want to discuss."
  },
  "186": {
    "user": "BigBigBen",
    "original_tweet_id": "795629300967940097",
    "reply": "@BigBigBen, are you still looking for help with this?"
  },
  "187": {
    "user": "TeliaCaple",
    "original_tweet_id": "795649981080367104",
    "reply": "@TeliaCaple, I might be able to help - I've been doing it for around ten years. :)"
  },
  "188": {
    "user": "_Mi_tierra",
    "original_tweet_id": "795692384134766592",
    "reply": "@_Mi_tierra, if you haven't got this sorted yet, I might be able to help :)"
  },
  "189": {
    "user": "The_MindofNate",
    "original_tweet_id": "795759974752227328",
    "reply": "@The_MindofNate, I might be able to help - I've been doing it for around ten years. :)"
  },
  "190": {
    "user": "MonyqueXO",
    "original_tweet_id": "796039639735959556",
    "reply": "@MonyqueXO, are you still looking for help with this?"
  },
  "191": {
    "user": "KirkLubimov",
    "original_tweet_id": "796127290232975360",
    "reply": "@KirkLubimov, I'd love to help. Can you explain a little bit more about what you're looking for?"
  },
  "192": {
    "user": "ByronThai",
    "original_tweet_id": "796173445524393984",
    "reply": "@ByronThai, I might be able to help - I've been doing it for around ten years. :)"
  },
  "193": {
    "user": "BillLudwig",
    "original_tweet_id": "796202256957902848",
    "reply": "@BillLudwig, I'd love to help. Can you explain a little bit more about what you're looking for?"
  },
  "194": {
    "user": "SiamKidd",
    "original_tweet_id": "796294044859109376",
    "reply": "@SiamKidd, if you're still looking, I might be able to help. Let me know if you want to discuss."
  },
  "195": {
    "user": "x_yanaaa",
    "original_tweet_id": "796360266351083520",
    "reply": "@x_yanaaa, are you still looking for help with this?"
  },
  "196": {
    "user": "DJRich330",
    "original_tweet_id": "796504565021548544",
    "reply": "@DJRich330, if you haven't got this sorted yet, I might be able to help :)"
  },
  "197": {
    "user": "steve_objectify",
    "original_tweet_id": "796825035734401024",
    "reply": "@steve_objectify, I'd love to help. Can you explain a little bit more about what you're looking for?"
  },
  "198": {
    "user": "theSolovert",
    "original_tweet_id": "797176313400303616",
    "reply": "@theSolovert, if you're still looking, I might be able to help. Let me know if you want to discuss."
  },
  "199": {
    "user": "2219Clint",
    "original_tweet_id": "797203095847636993",
    "reply": "@2219Clint, I'd love to help. Can you explain a little bit more about what you're looking for?"
  },
  "200": {
    "user": "Smoov3Criminal",
    "original_tweet_id": "797959030815780864",
    "reply": "@Smoov3Criminal, if you haven't got this sorted yet, I might be able to help :)"
  },
  "201": {
    "user": "TonyTecca",
    "original_tweet_id": "797971450460139521",
    "reply": "@TonyTecca, are you still looking for help with this?"
  },
  "202": {
    "user": "OcuosMC",
    "original_tweet_id": "797980724468981760",
    "reply": "@OcuosMC, I might be able to help - I've been doing it for around ten years. :)"
  },
  "203": {
    "user": "idraki7",
    "original_tweet_id": "798105646251929601",
    "reply": "@idraki7, if you haven't got this sorted yet, I might be able to help :)"
  },
  "204": {
    "user": "Claire_Minshull",
    "original_tweet_id": "798121430554673152",
    "reply": "@Claire_Minshull, I might be able to help - I've been doing it for around ten years. :)"
  },
  "205": {
    "user": "JonTromans",
    "original_tweet_id": "798152208902721537",
    "reply": "@JonTromans, are you still looking for help with this? Let me know if you want to discuss."
  },
  "206": {
    "user": "Pixel_Inked",
    "original_tweet_id": "798268636972613632",
    "reply": "@Pixel_Inked, if you haven't got this sorted yet, I might be able to help :)"
  },
  "207": {
    "user": "ThatKiddSwiz",
    "original_tweet_id": "798361257321566209",
    "reply": "@ThatKiddSwiz, are you still looking for help with this? Let me know if you want to discuss."
  },
  "208": {
    "user": "deepkl",
    "original_tweet_id": "798406192980697088",
    "reply": "@deepkl, are you still looking for help with this?"
  },
  "209": {
    "user": "majesty_ent",
    "original_tweet_id": "798685251706949634",
    "reply": "@majesty_ent, if you're still looking, I might be able to help. Let me know if you want to discuss."
  },
  "210": {
    "user": "SR_Powerz",
    "original_tweet_id": "798723968010190848",
    "reply": "@SR_Powerz, are you still looking for help with this?"
  },
  "211": {
    "user": "WickedPill",
    "original_tweet_id": "798826367760465920",
    "reply": "@WickedPill, are you still looking for help with this? Let me know if you want to discuss."
  },
  "212": {
    "user": "Lupogrande17",
    "original_tweet_id": "798879063154823168",
    "reply": "@Lupogrande17, I'd love to help. Can you explain a little bit more about what you're looking for?"
  },
  "213": {
    "user": "fernemccann",
    "original_tweet_id": "798886325877346304",
    "reply": "@fernemccann, if you're still looking, I might be able to help. Let me know if you want to discuss."
  },
  "214": {
    "user": "joelgarciajr84",
    "original_tweet_id": "798913177580961792",
    "reply": "@joelgarciajr84, if you're still looking, I might be able to help. Let me know if you want to discuss."
  },
  "215": {
    "user": "rianatogers",
    "original_tweet_id": "798915667395129344",
    "reply": "@rianatogers, are you still looking for help with this? Let me know if you want to discuss."
  },
  "216": {
    "user": "BaconDonutTV",
    "original_tweet_id": "799001891623444480",
    "reply": "@BaconDonutTV, are you still looking for help with this? Let me know if you want to discuss."
  },
  "217": {
    "user": "TrapOub",
    "original_tweet_id": "799018891414487040",
    "reply": "@TrapOub, if you haven't got this sorted yet, I might be able to help :)"
  },
  "218": {
    "user": "YoungSuavs",
    "original_tweet_id": "799026506248818688",
    "reply": "@YoungSuavs, if you haven't got this sorted yet, I might be able to help :)"
  },
  "219": {
    "user": "SproingCreative",
    "original_tweet_id": "799031859606933504",
    "reply": "@SproingCreative, I'd love to help. Can you explain a little bit more about what you're looking for?"
  },
  "220": {
    "user": "RayDaltonXXX",
    "original_tweet_id": "799066357379702784",
    "reply": "@RayDaltonXXX, are you still looking for help with this? Let me know if you want to discuss."
  },
  "221": {
    "user": "backbaykicks",
    "original_tweet_id": "799108945486954496",
    "reply": "@backbaykicks, if you haven't got this sorted yet, I might be able to help :)"
  },
  "222": {
    "user": "Fab_Viv",
    "original_tweet_id": "799223194842345472",
    "reply": "@Fab_Viv, are you still looking for help with this? Let me know if you want to discuss."
  },
  "223": {
    "user": "IamJamesMatthew",
    "original_tweet_id": "799330964358963200",
    "reply": "@IamJamesMatthew, if you're still looking, I might be able to help. Let me know if you want to discuss."
  },
  "224": {
    "user": "_iamyourdestiny",
    "original_tweet_id": "799339204798857218",
    "reply": "@_iamyourdestiny, I'd love to help. Can you explain a little bit more about what you're looking for?"
  },
  "225": {
    "user": "mahmoudsalala",
    "original_tweet_id": "799348135243882496",
    "reply": "@mahmoudsalala, if you're still looking, I might be able to help. Let me know if you want to discuss."
  },
  "226": {
    "user": "YorkshireLiff",
    "original_tweet_id": "799647191379963904",
    "reply": "@YorkshireLiff, if you haven't got this sorted yet, I might be able to help :)"
  },
  "227": {
    "user": "LHarris0n_",
    "original_tweet_id": "799670016232882176",
    "reply": "@LHarris0n_, if you haven't got this sorted yet, I might be able to help :)"
  },
  "228": {
    "user": "CelticFrosty",
    "original_tweet_id": "799669078285697024",
    "reply": "@CelticFrosty, are you still looking for help with this? Let me know if you want to discuss."
  },
  "229": {
    "user": "HerCurvess",
    "original_tweet_id": "799983480507502593",
    "reply": "@HerCurvess, are you still looking for help with this? Let me know if you want to discuss."
  },
  "230": {
    "user": "Starterdust",
    "original_tweet_id": "800027159498817536",
    "reply": "@Starterdust, if you haven't got this sorted yet, I might be able to help :)"
  },
  "231": {
    "user": "marcuslisle",
    "original_tweet_id": "800072617680048128",
    "reply": "@marcuslisle, are you still looking for help with this?"
  },
  "232": {
    "user": "MedinoGreen",
    "original_tweet_id": "800124855647633408",
    "reply": "@MedinoGreen, if you're still looking, I might be able to help. Let me know if you want to discuss."
  },
  "233": {
    "user": "Marijosedlbosq",
    "original_tweet_id": "800228380633284608",
    "reply": "@Marijosedlbosq, if you're still looking, I might be able to help. Let me know if you want to discuss."
  },
  "234": {
    "user": "princesssturner",
    "original_tweet_id": "800504838337359872",
    "reply": "@princesssturner, I'd love to help. Can you explain a little bit more about what you're looking for?"
  },
  "235": {
    "user": "BD180",
    "original_tweet_id": "800766711318253572",
    "reply": "@BD180, are you still looking for help with this? Let me know if you want to discuss."
  },
  "236": {
    "user": "LarrieLondon",
    "original_tweet_id": "800822869861154818",
    "reply": "@LarrieLondon, I'd love to help. Can you explain a little bit more about what you're looking for?"
  },
  "237": {
    "user": "XOLAEFFINSHAKUR",
    "original_tweet_id": "800991924064833536",
    "reply": "@XOLAEFFINSHAKUR, if you're still looking, I might be able to help. Let me know if you want to discuss."
  },
  "238": {
    "user": "CEMcQueen",
    "original_tweet_id": "801010833912451073",
    "reply": "@CEMcQueen, if you're still looking, I might be able to help. Let me know if you want to discuss."
  },
  "239": {
    "user": "NileProject",
    "original_tweet_id": "801061341813477376",
    "reply": "@NileProject, I'd love to help. Can you explain a little bit more about what you're looking for?"
  },
  "240": {
    "user": "nikroope",
    "original_tweet_id": "801068055614857216",
    "reply": "@nikroope, are you still looking for help with this? Let me know if you want to discuss."
  },
  "241": {
    "user": "dominic21ulloa",
    "original_tweet_id": "801191011871494144",
    "reply": "@dominic21ulloa, if you're still looking, I might be able to help. Let me know if you want to discuss."
  },
  "242": {
    "user": "Goldilox3Weres",
    "original_tweet_id": "801299035055333376",
    "reply": "@Goldilox3Weres, are you still looking for help with this?"
  },
  "243": {
    "user": "J_Chambo",
    "original_tweet_id": "801362031811194880",
    "reply": "@J_Chambo, are you still looking for help with this? Let me know if you want to discuss."
  },
  "244": {
    "user": "AndrewBooton",
    "original_tweet_id": "801769093699354624",
    "reply": "@AndrewBooton, are you still looking for help with this?"
  },
  "245": {
    "user": "Ken_Rackz",
    "original_tweet_id": "802916810248986624",
    "reply": "@Ken_Rackz, are you still looking for help with this?"
  },
  "246": {
    "user": "YK_Eddie",
    "original_tweet_id": "802923465347104769",
    "reply": "@YK_Eddie, if you haven't got this sorted yet, I might be able to help :)"
  },
  "247": {
    "user": "RealDarkOut",
    "original_tweet_id": "802962097722322944",
    "reply": "@RealDarkOut, are you still looking for help with this? Let me know if you want to discuss."
  },
  "248": {
    "user": "JG3_Gazcon",
    "original_tweet_id": "803280904399384576",
    "reply": "@JG3_Gazcon, if you're still looking, I might be able to help. Let me know if you want to discuss."
  },
  "249": {
    "user": "FC__Gaming",
    "original_tweet_id": "803303287848103936",
    "reply": "@FC__Gaming, are you still looking for help with this? Let me know if you want to discuss."
  },
  "250": {
    "user": "LynnKrown",
    "original_tweet_id": "803371435737620480",
    "reply": "@LynnKrown, if you haven't got this sorted yet, I might be able to help :)"
  },
  "251": {
    "user": "mohammedus_",
    "original_tweet_id": "803395939280908289",
    "reply": "@mohammedus_, if you're still looking, I might be able to help. Let me know if you want to discuss."
  },
  "252": {
    "user": "RedAsATomato",
    "original_tweet_id": "803401928113725440",
    "reply": "@RedAsATomato, I might be able to help - I've been doing it for around ten years. :)"
  },
  "253": {
    "user": "Jonno90",
    "original_tweet_id": "803632203825643521",
    "reply": "@Jonno90, are you still looking for help with this?"
  },
  "254": {
    "user": "MIKEFLOSSMUSIC",
    "original_tweet_id": "803672675277148160",
    "reply": "@MIKEFLOSSMUSIC, I'd love to help. Can you explain a little bit more about what you're looking for?"
  },
  "255": {
    "user": "JPvideoeditor",
    "original_tweet_id": "803734119712628736",
    "reply": "@JPvideoeditor, I might be able to help - I've been doing it for around ten years. :)"
  },
  "256": {
    "user": "dnahodil",
    "original_tweet_id": "803902075855740928",
    "reply": "@dnahodil, I'd love to help. Can you explain a little bit more about what you're looking for?"
  },
  "257": {
    "user": "KlNGVIBES_",
    "original_tweet_id": "804018941500813312",
    "reply": "@KlNGVIBES_, are you still looking for help with this?"
  },
  "258": {
    "user": "Tk_OHH",
    "original_tweet_id": "804072985946705923",
    "reply": "@Tk_OHH, I might be able to help - I've been doing it for around ten years. :)"
  },
  "259": {
    "user": "Iman__le",
    "original_tweet_id": "804073788409335810",
    "reply": "@Iman__le, if you're still looking, I might be able to help. Let me know if you want to discuss."
  },
  "260": {
    "user": "HendravNiekerk",
    "original_tweet_id": "804282059678216192",
    "reply": "@HendravNiekerk, are you still looking for help with this? Let me know if you want to discuss."
  },
  "261": {
    "user": "LisaMcConniffe",
    "original_tweet_id": "804365054103588864",
    "reply": "@LisaMcConniffe, I might be able to help - I've been doing it for around ten years. :)"
  },
  "262": {
    "user": "daboss8980",
    "original_tweet_id": "804384172768890880",
    "reply": "@daboss8980, I might be able to help - I've been doing it for around ten years. :)"
  },
  "263": {
    "user": "sudocrystal",
    "original_tweet_id": "804417483125899264",
    "reply": "@sudocrystal, are you still looking for help with this?"
  },
  "264": {
    "user": "amandoge",
    "original_tweet_id": "804424960848429056",
    "reply": "@amandoge, if you haven't got this sorted yet, I might be able to help :)"
  },
  "265": {
    "user": "gregcorby",
    "original_tweet_id": "804462157769281536",
    "reply": "@gregcorby, are you still looking for help with this?"
  },
  "266": {
    "user": "the_jk_off",
    "original_tweet_id": "805145203862605826",
    "reply": "@the_jk_off, I'd love to help. Can you explain a little bit more about what you're looking for?"
  },
  "267": {
    "user": "KingPiggyRicky",
    "original_tweet_id": "805530790574587905",
    "reply": "@KingPiggyRicky, are you still looking for help with this? Let me know if you want to discuss."
  },
  "268": {
    "user": "PoweringJosh",
    "original_tweet_id": "805602439403552768",
    "reply": "@PoweringJosh, if you haven't got this sorted yet, I might be able to help :)"
  },
  "269": {
    "user": "GroupMedia",
    "original_tweet_id": "805732227732688896",
    "reply": "@GroupMedia, are you still looking for help with this? Let me know if you want to discuss."
  },
  "270": {
    "user": "alekpierce",
    "original_tweet_id": "805800902158327808",
    "reply": "@alekpierce, if you're still looking, I might be able to help. Let me know if you want to discuss."
  },
  "271": {
    "user": "larrymagid",
    "original_tweet_id": "805840032431034368",
    "reply": "@larrymagid, if you're still looking, I might be able to help. Let me know if you want to discuss."
  },
  "272": {
    "user": "SteveTomsYYC",
    "original_tweet_id": "805851718084751360",
    "reply": "@SteveTomsYYC, are you still looking for help with this? Let me know if you want to discuss."
  },
  "273": {
    "user": "jasondominy",
    "original_tweet_id": "805919112933281792",
    "reply": "@jasondominy, I might be able to help - I've been doing it for around ten years. :)"
  },
  "274": {
    "user": "OneBadHippie",
    "original_tweet_id": "805965627168944128",
    "reply": "@OneBadHippie, I might be able to help - I've been doing it for around ten years. :)"
  },
  "275": {
    "user": "stitch_xd",
    "original_tweet_id": "806034672635387905",
    "reply": "@stitch_xd, are you still looking for help with this?"
  },
  "276": {
    "user": "Packtorium",
    "original_tweet_id": "806054270910939136",
    "reply": "@Packtorium, are you still looking for help with this? Let me know if you want to discuss."
  },
  "277": {
    "user": "bryanchua96",
    "original_tweet_id": "806142038529830912",
    "reply": "@bryanchua96, are you still looking for help with this?"
  },
  "278": {
    "user": "GravitateDigi",
    "original_tweet_id": "806149420962238464",
    "reply": "@GravitateDigi, I might be able to help - I've been doing it for around ten years. :)"
  },
  "279": {
    "user": "mellldavis",
    "original_tweet_id": "806241372676247552",
    "reply": "@mellldavis, if you haven't got this sorted yet, I might be able to help :)"
  },
  "280": {
    "user": "dastantheprince",
    "original_tweet_id": "806348390170660865",
    "reply": "@dastantheprince, are you still looking for help with this?"
  },
  "281": {
    "user": "LipglossKiss",
    "original_tweet_id": "806401965336985600",
    "reply": "@LipglossKiss, I'd love to help. Can you explain a little bit more about what you're looking for?"
  },
  "282": {
    "user": "flooey",
    "original_tweet_id": "806557372743380992",
    "reply": "@flooey, if you haven't got this sorted yet, I might be able to help :)"
  },
  "283": {
    "user": "learn_cody",
    "original_tweet_id": "806668329033285643",
    "reply": "@learn_cody, I might be able to help - I've been doing it for around ten years. :)"
  },
  "284": {
    "user": "dreamedofdust",
    "original_tweet_id": "806771874243821570",
    "reply": "@dreamedofdust, I might be able to help - I've been doing it for around ten years. :)"
  },
  "285": {
    "user": "wangarific",
    "original_tweet_id": "807308002978054145",
    "reply": "@wangarific, are you still looking for help with this?"
  },
  "286": {
    "user": "EndeavoursRadio",
    "original_tweet_id": "807352135104876544",
    "reply": "@EndeavoursRadio, if you haven't got this sorted yet, I might be able to help :)"
  },
  "287": {
    "user": "_zancosarah",
    "original_tweet_id": "807736972596903936",
    "reply": "@_zancosarah, I'd love to help. Can you explain a little bit more about what you're looking for?"
  },
  "288": {
    "user": "Astro_Games_41",
    "original_tweet_id": "807871662297403392",
    "reply": "@Astro_Games_41, if you're still looking, I might be able to help. Let me know if you want to discuss."
  },
  "289": {
    "user": "kezpetlamb",
    "original_tweet_id": "807982676749729792",
    "reply": "@kezpetlamb, I might be able to help - I've been doing it for around ten years. :)"
  },
  "290": {
    "user": "Kahlessi_",
    "original_tweet_id": "808309415392710656",
    "reply": "@Kahlessi_, I'd love to help. Can you explain a little bit more about what you're looking for?"
  },
  "291": {
    "user": "historicfirearm",
    "original_tweet_id": "808682416260911104",
    "reply": "@historicfirearm, if you're still looking, I might be able to help. Let me know if you want to discuss."
  },
  "292": {
    "user": "lizzie_b",
    "original_tweet_id": "808692584054984704",
    "reply": "@lizzie_b, are you still looking for help with this?"
  },
  "293": {
    "user": "AtlantaUKFans",
    "original_tweet_id": "808760274022989824",
    "reply": "@AtlantaUKFans, are you still looking for help with this?"
  },
  "294": {
    "user": "notacokedealer",
    "original_tweet_id": "808790294967832576",
    "reply": "@notacokedealer, if you're still looking, I might be able to help. Let me know if you want to discuss."
  },
  "295": {
    "user": "ItamarPita",
    "original_tweet_id": "808912552042364928",
    "reply": "@ItamarPita, I might be able to help - I've been doing it for around ten years. :)"
  },
  "296": {
    "user": "DylanJCampbell2",
    "original_tweet_id": "809123139250692096",
    "reply": "@DylanJCampbell2, I'd love to help. Can you explain a little bit more about what you're looking for?"
  },
  "297": {
    "user": "MarkBusse",
    "original_tweet_id": "809210284149641216",
    "reply": "@MarkBusse, are you still looking for help with this? Let me know if you want to discuss."
  },
  "298": {
    "user": "Dick_Nyland",
    "original_tweet_id": "809235040509054982",
    "reply": "@Dick_Nyland, I might be able to help - I've been doing it for around ten years. :)"
  },
  "299": {
    "user": "KeeColeee",
    "original_tweet_id": "809871538820382721",
    "reply": "@KeeColeee, are you still looking for help with this? Let me know if you want to discuss."
  },
  "300": {
    "user": "MLGTwiceT",
    "original_tweet_id": "810262033543335938",
    "reply": "@MLGTwiceT, are you still looking for help with this? Let me know if you want to discuss."
  },
  "301": {
    "user": "FFlashh905",
    "original_tweet_id": "810287636816556032",
    "reply": "@FFlashh905, are you still looking for help with this?"
  },
  "302": {
    "user": "LadyOOfficial",
    "original_tweet_id": "810348278244134912",
    "reply": "@LadyOOfficial, I'd love to help. Can you explain a little bit more about what you're looking for?"
  },
  "303": {
    "user": "SynRenz",
    "original_tweet_id": "810501586854309893",
    "reply": "@SynRenz, I might be able to help - I've been doing it for around ten years. :)"
  },
  "304": {
    "user": "Deehunt_",
    "original_tweet_id": "810592622406406144",
    "reply": "@Deehunt_, are you still looking for help with this? Let me know if you want to discuss."
  },
  "305": {
    "user": "davidErogers",
    "original_tweet_id": "810794473697476609",
    "reply": "@davidErogers, I might be able to help - I've been doing it for around ten years. :)"
  },
  "306": {
    "user": "Nelzbwoy",
    "original_tweet_id": "810908663758077953",
    "reply": "@Nelzbwoy, I'd love to help. Can you explain a little bit more about what you're looking for?"
  },
  "307": {
    "user": "online_somm",
    "original_tweet_id": "810937613225955328",
    "reply": "@online_somm, if you haven't got this sorted yet, I might be able to help :)"
  },
  "308": {
    "user": "TahsirAhsan",
    "original_tweet_id": "811058713142272000",
    "reply": "@TahsirAhsan, are you still looking for help with this?"
  },
  "309": {
    "user": "enlucem",
    "original_tweet_id": "811324991522283524",
    "reply": "@enlucem, I'd love to help. Can you explain a little bit more about what you're looking for?"
  },
  "310": {
    "user": "TaylahMScott",
    "original_tweet_id": "811580814089711617",
    "reply": "@TaylahMScott, I'd love to help. Can you explain a little bit more about what you're looking for?"
  },
  "311": {
    "user": "HealthyRem",
    "original_tweet_id": "811613015468605440",
    "reply": "@HealthyRem, are you still looking for help with this? Let me know if you want to discuss."
  },
  "312": {
    "user": "DineandDish",
    "original_tweet_id": "811617580104331264",
    "reply": "@DineandDish, are you still looking for help with this? Let me know if you want to discuss."
  },
  "313": {
    "user": "jamesdunsmoree",
    "original_tweet_id": "811636512475463682",
    "reply": "@jamesdunsmoree, I might be able to help - I've been doing it for around ten years. :)"
  },
  "314": {
    "user": "Starky_uP",
    "original_tweet_id": "811967456390643712",
    "reply": "@Starky_uP, if you haven't got this sorted yet, I might be able to help :)"
  },
  "315": {
    "user": "PlayWithDavi",
    "original_tweet_id": "812434236191993857",
    "reply": "@PlayWithDavi, if you're still looking, I might be able to help. Let me know if you want to discuss."
  },
  "316": {
    "user": "Martin_Boev",
    "original_tweet_id": "813336978968166400",
    "reply": "@Martin_Boev, are you still looking for help with this? Let me know if you want to discuss."
  },
  "317": {
    "user": "cmackalea",
    "original_tweet_id": "813417317308764161",
    "reply": "@cmackalea, if you haven't got this sorted yet, I might be able to help :)"
  },
  "318": {
    "user": "proaudiofiles",
    "original_tweet_id": "813418645749727232",
    "reply": "@proaudiofiles, if you haven't got this sorted yet, I might be able to help :)"
  },
  "319": {
    "user": "CorporalYT",
    "original_tweet_id": "813511582571462656",
    "reply": "@CorporalYT, I'd love to help. Can you explain a little bit more about what you're looking for?"
  },
  "320": {
    "user": "Dazhaneleah",
    "original_tweet_id": "813907096345382913",
    "reply": "@Dazhaneleah, I'd love to help. Can you explain a little bit more about what you're looking for?"
  },
  "321": {
    "user": "djihnternal",
    "original_tweet_id": "813911706858463232",
    "reply": "@djihnternal, if you're still looking, I might be able to help. Let me know if you want to discuss."
  },
  "322": {
    "user": "mechiie_",
    "original_tweet_id": "814160477601333248",
    "reply": "@mechiie_, if you haven't got this sorted yet, I might be able to help :)"
  },
  "323": {
    "user": "abroadwaybully",
    "original_tweet_id": "814300366955311104",
    "reply": "@abroadwaybully, I'd love to help. Can you explain a little bit more about what you're looking for?"
  },
  "324": {
    "user": "ATPYS",
    "original_tweet_id": "814542171479175168",
    "reply": "@ATPYS, are you still looking for help with this? Let me know if you want to discuss."
  },
  "325": {
    "user": "QuariBanks",
    "original_tweet_id": "814666596950167552",
    "reply": "@QuariBanks, are you still looking for help with this? Let me know if you want to discuss."
  },
  "326": {
    "user": "lancetheseira",
    "original_tweet_id": "814787000599314432",
    "reply": "@lancetheseira, are you still looking for help with this?"
  },
  "327": {
    "user": "ooweedejaa",
    "original_tweet_id": "815009327937241089",
    "reply": "@ooweedejaa, if you're still looking, I might be able to help. Let me know if you want to discuss."
  },
  "328": {
    "user": "AJSaudin",
    "original_tweet_id": "815093872229548033",
    "reply": "@AJSaudin, are you still looking for help with this?"
  },
  "329": {
    "user": "JazMajor_",
    "original_tweet_id": "815267057604448256",
    "reply": "@JazMajor_, if you're still looking, I might be able to help. Let me know if you want to discuss."
  },
  "330": {
    "user": "NFillionOnline",
    "original_tweet_id": "815360983610822656",
    "reply": "@NFillionOnline, I might be able to help - I've been doing it for around ten years. :)"
  },
  "331": {
    "user": "_ColdestAlive_",
    "original_tweet_id": "815621476380540928",
    "reply": "@_ColdestAlive_, are you still looking for help with this?"
  },
  "332": {
    "user": "DaDonGED",
    "original_tweet_id": "815623884171055104",
    "reply": "@DaDonGED, if you haven't got this sorted yet, I might be able to help :)"
  },
  "333": {
    "user": "anthonypit1",
    "original_tweet_id": "816313478768132097",
    "reply": "@anthonypit1, I might be able to help - I've been doing it for around ten years. :)"
  },
  "334": {
    "user": "angelarram0s",
    "original_tweet_id": "816318963235913728",
    "reply": "@angelarram0s, are you still looking for help with this? Let me know if you want to discuss."
  },
  "335": {
    "user": "DamnDejha",
    "original_tweet_id": "816331033159335936",
    "reply": "@DamnDejha, are you still looking for help with this?"
  },
  "336": {
    "user": "FanamHits",
    "original_tweet_id": "816354284635877376",
    "reply": "@FanamHits, if you haven't got this sorted yet, I might be able to help :)"
  },
  "337": {
    "user": "JohnGraceless",
    "original_tweet_id": "816502841074393088",
    "reply": "@JohnGraceless, if you're still looking, I might be able to help. Let me know if you want to discuss."
  },
  "338": {
    "user": "Tr1plG",
    "original_tweet_id": "816609814965010432",
    "reply": "@Tr1plG, I might be able to help - I've been doing it for around ten years. :)"
  },
  "339": {
    "user": "CorporateBrit",
    "original_tweet_id": "816629519205466112",
    "reply": "@CorporateBrit, if you're still looking, I might be able to help. Let me know if you want to discuss."
  },
  "340": {
    "user": "ParisLitUp",
    "original_tweet_id": "816675983491289088",
    "reply": "@ParisLitUp, are you still looking for help with this?"
  },
  "341": {
    "user": "SantanaBurberry",
    "original_tweet_id": "816824594841669632",
    "reply": "@SantanaBurberry, I might be able to help - I've been doing it for around ten years. :)"
  },
  "342": {
    "user": "KalebRoseMusic",
    "original_tweet_id": "816952702731243520",
    "reply": "@KalebRoseMusic, if you haven't got this sorted yet, I might be able to help :)"
  },
  "343": {
    "user": "CoderSet",
    "original_tweet_id": "816994103548317696",
    "reply": "@CoderSet, if you're still looking, I might be able to help. Let me know if you want to discuss."
  },
  "344": {
    "user": "tzkoli",
    "original_tweet_id": "817055252096647168",
    "reply": "@tzkoli, I might be able to help - I've been doing it for around ten years. :)"
  },
  "345": {
    "user": "lilibethstar",
    "original_tweet_id": "817081244303376384",
    "reply": "@lilibethstar, I'd love to help. Can you explain a little bit more about what you're looking for?"
  },
  "346": {
    "user": "ReviewByLurch",
    "original_tweet_id": "817187058598825984",
    "reply": "@ReviewByLurch, are you still looking for help with this? Let me know if you want to discuss."
  },
  "347": {
    "user": "BC411_",
    "original_tweet_id": "817353836583129089",
    "reply": "@BC411_, I'd love to help. Can you explain a little bit more about what you're looking for?"
  },
  "348": {
    "user": "Ohii_",
    "original_tweet_id": "817416611808288768",
    "reply": "@Ohii_, if you haven't got this sorted yet, I might be able to help :)"
  },
  "349": {
    "user": "joshbroton",
    "original_tweet_id": "817437933036769280",
    "reply": "@joshbroton, are you still looking for help with this? Let me know if you want to discuss."
  },
  "350": {
    "user": "laurenxlock",
    "original_tweet_id": "817495570013110272",
    "reply": "@laurenxlock, if you haven't got this sorted yet, I might be able to help :)"
  },
  "351": {
    "user": "BVCKW00D",
    "original_tweet_id": "817757597898080264",
    "reply": "@BVCKW00D, I might be able to help - I've been doing it for around ten years. :)"
  },
  "352": {
    "user": "Peppermint247",
    "original_tweet_id": "818120791892041728",
    "reply": "@Peppermint247, I might be able to help - I've been doing it for around ten years. :)"
  },
  "353": {
    "user": "dollsndDOOBIES",
    "original_tweet_id": "818130169391157250",
    "reply": "@dollsndDOOBIES, if you're still looking, I might be able to help. Let me know if you want to discuss."
  },
  "354": {
    "user": "Bottom_Tier",
    "original_tweet_id": "818134080285970439",
    "reply": "@Bottom_Tier, if you haven't got this sorted yet, I might be able to help :)"
  },
  "355": {
    "user": "tomDRevans",
    "original_tweet_id": "818443241561477120",
    "reply": "@tomDRevans, I might be able to help - I've been doing it for around ten years. :)"
  },
  "356": {
    "user": "tayterbug",
    "original_tweet_id": "818496071731126273",
    "reply": "@tayterbug, are you still looking for help with this? Let me know if you want to discuss."
  },
  "357": {
    "user": "Nonebuawhsa",
    "original_tweet_id": "818588580687839233",
    "reply": "@Nonebuawhsa, if you're still looking, I might be able to help. Let me know if you want to discuss."
  },
  "358": {
    "user": "HabboScarlet",
    "original_tweet_id": "818810599161393153",
    "reply": "@HabboScarlet, are you still looking for help with this?"
  },
  "359": {
    "user": "EliteIqHoops",
    "original_tweet_id": "818885184258863104",
    "reply": "@EliteIqHoops, I might be able to help - I've been doing it for around ten years. :)"
  },
  "360": {
    "user": "natalievi",
    "original_tweet_id": "818889191769722881",
    "reply": "@natalievi, are you still looking for help with this? Let me know if you want to discuss."
  },
  "361": {
    "user": "davewi11",
    "original_tweet_id": "818965736035127297",
    "reply": "@davewi11, I'd love to help. Can you explain a little bit more about what you're looking for?"
  },
  "362": {
    "user": "MoliciousRaw",
    "original_tweet_id": "818977800875077632",
    "reply": "@MoliciousRaw, if you haven't got this sorted yet, I might be able to help :)"
  },
  "363": {
    "user": "Shirarawr_",
    "original_tweet_id": "819049954182168577",
    "reply": "@Shirarawr_, I'd love to help. Can you explain a little bit more about what you're looking for?"
  },
  "364": {
    "user": "rudy_pavich",
    "original_tweet_id": "819173649072656387",
    "reply": "@rudy_pavich, if you're still looking, I might be able to help. Let me know if you want to discuss."
  },
  "365": {
    "user": "madebyjenni",
    "original_tweet_id": "819198713075744768",
    "reply": "@madebyjenni, if you're still looking, I might be able to help. Let me know if you want to discuss."
  },
  "366": {
    "user": "ChrisVanPatten",
    "original_tweet_id": "819216331727847426",
    "reply": "@ChrisVanPatten, are you still looking for help with this?"
  },
  "367": {
    "user": "SamanthaJDeakin",
    "original_tweet_id": "819508527001694209",
    "reply": "@SamanthaJDeakin, if you haven't got this sorted yet, I might be able to help :)"
  },
  "368": {
    "user": "spency_mitch24",
    "original_tweet_id": "819612885064253440",
    "reply": "@spency_mitch24, if you haven't got this sorted yet, I might be able to help :)"
  },
  "369": {
    "user": "souadda",
    "original_tweet_id": "819614240281657344",
    "reply": "@souadda, if you haven't got this sorted yet, I might be able to help :)"
  },
  "370": {
    "user": "Vinylzac",
    "original_tweet_id": "819690182643331072",
    "reply": "@Vinylzac, are you still looking for help with this? Let me know if you want to discuss."
  },
  "371": {
    "user": "AaronMcKenzie55",
    "original_tweet_id": "819708050126688256",
    "reply": "@AaronMcKenzie55, I might be able to help - I've been doing it for around ten years. :)"
  },
  "372": {
    "user": "RD_Decor",
    "original_tweet_id": "819833426085822465",
    "reply": "@RD_Decor, are you still looking for help with this? Let me know if you want to discuss."
  },
  "373": {
    "user": "GeraldineOC1",
    "original_tweet_id": "819882274246324225",
    "reply": "@GeraldineOC1, I'd love to help. Can you explain a little bit more about what you're looking for?"
  },
  "374": {
    "user": "4eyeGaming",
    "original_tweet_id": "820136216662134786",
    "reply": "@4eyeGaming, are you still looking for help with this? Let me know if you want to discuss."
  },
  "375": {
    "user": "dancartertc",
    "original_tweet_id": "820183686121394177",
    "reply": "@dancartertc, I might be able to help - I've been doing it for around ten years. :)"
  },
  "376": {
    "user": "ShootTokyo",
    "original_tweet_id": "820457478643073024",
    "reply": "@ShootTokyo, I might be able to help - I've been doing it for around ten years. :)"
  },
  "377": {
    "user": "Rockwithdan",
    "original_tweet_id": "821016673499156481",
    "reply": "@Rockwithdan, I'd love to help. Can you explain a little bit more about what you're looking for?"
  },
  "378": {
    "user": "steve_1685",
    "original_tweet_id": "821043554151763969",
    "reply": "@steve_1685, are you still looking for help with this?"
  },
  "379": {
    "user": "dougfarrick",
    "original_tweet_id": "821050956439752705",
    "reply": "@dougfarrick, I'd love to help. Can you explain a little bit more about what you're looking for?"
  },
  "380": {
    "user": "_TerrenceT",
    "original_tweet_id": "821065517595316226",
    "reply": "@_TerrenceT, are you still looking for help with this? Let me know if you want to discuss."
  },
  "381": {
    "user": "Ken_Pedersen",
    "original_tweet_id": "821116597653868544",
    "reply": "@Ken_Pedersen, I'd love to help. Can you explain a little bit more about what you're looking for?"
  },
  "382": {
    "user": "token_face",
    "original_tweet_id": "821164534094249985",
    "reply": "@token_face, if you're still looking, I might be able to help. Let me know if you want to discuss."
  },
  "383": {
    "user": "Raaga_Suresh",
    "original_tweet_id": "821241067295166465",
    "reply": "@Raaga_Suresh, I might be able to help - I've been doing it for around ten years. :)"
  },
  "384": {
    "user": "BrentTowers",
    "original_tweet_id": "821346409949569024",
    "reply": "@BrentTowers, if you haven't got this sorted yet, I might be able to help :)"
  },
  "385": {
    "user": "Quietbreezes",
    "original_tweet_id": "821409160466169856",
    "reply": "@Quietbreezes, if you're still looking, I might be able to help. Let me know if you want to discuss."
  },
  "386": {
    "user": "keithbua11",
    "original_tweet_id": "821423093595803648",
    "reply": "@keithbua11, are you still looking for help with this? Let me know if you want to discuss."
  },
  "387": {
    "user": "ArtistikRebel",
    "original_tweet_id": "821438918126161920",
    "reply": "@ArtistikRebel, are you still looking for help with this? Let me know if you want to discuss."
  },
  "388": {
    "user": "jumppshott",
    "original_tweet_id": "821500530556076033",
    "reply": "@jumppshott, I'd love to help. Can you explain a little bit more about what you're looking for?"
  },
  "389": {
    "user": "Jovanni777",
    "original_tweet_id": "821544444268806144",
    "reply": "@Jovanni777, if you're still looking, I might be able to help. Let me know if you want to discuss."
  },
  "390": {
    "user": "DondaKage",
    "original_tweet_id": "821544703049035779",
    "reply": "@DondaKage, if you're still looking, I might be able to help. Let me know if you want to discuss."
  },
  "391": {
    "user": "Naomi_Lauture",
    "original_tweet_id": "821578178342907905",
    "reply": "@Naomi_Lauture, I might be able to help - I've been doing it for around ten years. :)"
  },
  "392": {
    "user": "bIuestnight",
    "original_tweet_id": "821722719922388992",
    "reply": "@bIuestnight, I'd love to help. Can you explain a little bit more about what you're looking for?"
  },
  "393": {
    "user": "designprojectnw",
    "original_tweet_id": "821819509128515584",
    "reply": "@designprojectnw, are you still looking for help with this?"
  },
  "394": {
    "user": "Perceptive_Web",
    "original_tweet_id": "821836616096485378",
    "reply": "@Perceptive_Web, I might be able to help - I've been doing it for around ten years. :)"
  },
  "395": {
    "user": "evnm",
    "original_tweet_id": "822063426688221184",
    "reply": "@evnm, are you still looking for help with this?"
  },
  "396": {
    "user": "stylinglounge",
    "original_tweet_id": "822063628752977920",
    "reply": "@stylinglounge, I'd love to help. Can you explain a little bit more about what you're looking for?"
  },
  "397": {
    "user": "burbswp",
    "original_tweet_id": "822228029602758661",
    "reply": "@burbswp, if you're still looking, I might be able to help. Let me know if you want to discuss."
  },
  "398": {
    "user": "SirGaryTweets",
    "original_tweet_id": "822264619041329152",
    "reply": "@SirGaryTweets, I'd love to help. Can you explain a little bit more about what you're looking for?"
  },
  "399": {
    "user": "jackattacked",
    "original_tweet_id": "822341203676934144",
    "reply": "@jackattacked, I'd love to help. Can you explain a little bit more about what you're looking for?"
  },
  "400": {
    "user": "johnmlhll",
    "original_tweet_id": "822425188851712001",
    "reply": "@johnmlhll, if you haven't got this sorted yet, I might be able to help :)"
  },
  "401": {
    "user": "whitebrands",
    "original_tweet_id": "822428840526053378",
    "reply": "@whitebrands, are you still looking for help with this? Let me know if you want to discuss."
  },
  "402": {
    "user": "modernprogrammr",
    "original_tweet_id": "823475503034155008",
    "reply": "@modernprogrammr, are you still looking for help with this? Let me know if you want to discuss."
  },
  "403": {
    "user": "Dan_Bridgewater",
    "original_tweet_id": "823217436052885504",
    "reply": "@Dan_Bridgewater, if you haven't got this sorted yet, I might be able to help :)"
  },
  "404": {
    "user": "NatalieKniese",
    "original_tweet_id": "823467443506933761",
    "reply": "@NatalieKniese, are you still looking for help with this?"
  },
  "405": {
    "user": "MaryLambieNZ",
    "original_tweet_id": "823465404555083776",
    "reply": "@MaryLambieNZ, I might be able to help - I've been doing it for around ten years. :)"
  },
  "406": {
    "user": "LoveEire4eva",
    "original_tweet_id": "823572595404578816",
    "reply": "@LoveEire4eva If you haven't got this sorted yet, I might be able to help :)"
  },
  "407": {
    "user": "Otzme",
    "original_tweet_id": "823581019718688769",
    "reply": "@Otzme Are you still looking for help with this?"
  },
  "408": {
    "user": "haleydolive",
    "original_tweet_id": "823622674232516609",
    "reply": "@haleydolive Are you still looking for help with this?"
  },
  "409": {
    "user": "delusiontotruth",
    "original_tweet_id": "823746688833744896",
    "reply": "@delusiontotruth Are you still looking for help with this?"
  },
  "410": {
    "user": "kahsolo",
    "original_tweet_id": "823918044351229952",
    "reply": "@kahsolo I might be able to help - I've been doing it for around ten years. :)"
  },
  "411": {
    "user": "JustdatGreat",
    "original_tweet_id": "823959889026416640",
    "reply": "@JustdatGreat I'd love to help. Can you explain a little bit more about what you're looking for?"
  },
  "412": {
    "user": "Lyssaaaahh",
    "original_tweet_id": "823967499356082178",
    "reply": "@Lyssaaaahh Are you still looking for help with this?"
  },
  "413": {
    "user": "TatiMo_GZ",
    "original_tweet_id": "824006893823725568",
    "reply": "@TatiMo_GZ If you haven't got this sorted yet, I might be able to help :)"
  },
  "414": {
    "user": "surrogate_novel",
    "original_tweet_id": "824317309359685637",
    "reply": "@surrogate_novel If you haven't got this sorted yet, I might be able to help :)"
  },
  "415": {
    "user": "manoora_6",
    "original_tweet_id": "824397328949936129",
    "reply": "@manoora_6 If you haven't got this sorted yet, I might be able to help :)"
  },
  "416": {
    "user": "TokyoTrendz_",
    "original_tweet_id": "824414721021476864",
    "reply": "@TokyoTrendz_ Are you still looking for help with this? Let me know if you want to discuss."
  },
  "417": {
    "user": "ChamberQC",
    "original_tweet_id": "824681825280884738",
    "reply": "@ChamberQC Are you still looking for help with this? Let me know if you want to discuss."
  },
  "418": {
    "user": "MisterMute2",
    "original_tweet_id": "824803326097100800",
    "reply": "@MisterMute2 I might be able to help - I've been doing it for around ten years. :)"
  },
  "419": {
    "user": "Jordi_rawco",
    "original_tweet_id": "824995112916656129",
    "reply": "@Jordi_rawco Are you still looking for help with this? Let me know if you want to discuss."
  },
  "420": {
    "user": "donaldmichael_",
    "original_tweet_id": "825003811693527040",
    "reply": "@donaldmichael_ I'd love to help. Can you explain a little bit more about what you're looking for?"
  },
  "421": {
    "user": "InteriorAlt",
    "original_tweet_id": "825353544672931840",
    "reply": "@InteriorAlt If you're still looking, I might be able to help. Let me know if you want to discuss."
  },
  "422": {
    "user": "Dankcxo",
    "original_tweet_id": "825457947199361024",
    "reply": "@Dankcxo If you haven't got this sorted yet, I might be able to help :)"
  },
  "423": {
    "user": "VariableGrizz",
    "original_tweet_id": "825737758614364160",
    "reply": "@VariableGrizz Are you still looking for help with this?"
  },
  "424": {
    "user": "Pcyden_",
    "original_tweet_id": "825878387293949952",
    "reply": "@Pcyden_ I'd love to help. Can you explain a little bit more about what you're looking for?"
  },
  "425": {
    "user": "JahJah_CITY",
    "original_tweet_id": "826055872845590529",
    "reply": "@JahJah_CITY I'd love to help. Can you explain a little bit more about what you're looking for?"
  },
  "426": {
    "user": "SecureSun",
    "original_tweet_id": "826164288704413698",
    "reply": "@SecureSun Are you still looking for help with this?"
  },
  "427": {
    "user": "Catstello",
    "original_tweet_id": "826174657237770240",
    "reply": "@Catstello I might be able to help - I've been doing it for around ten years. :)"
  },
  "428": {
    "user": "willi8relyance",
    "original_tweet_id": "826181832827863041",
    "reply": "@willi8relyance Are you still looking for help with this? Let me know if you want to discuss."
  },
  "429": {
    "user": "mikeSnyder0519",
    "original_tweet_id": "826276916734881792",
    "reply": "@mikeSnyder0519 Are you still looking for help with this?"
  },
  "430": {
    "user": "Valeriee__d",
    "original_tweet_id": "826296537290379265",
    "reply": "@Valeriee__d If you're still looking, I might be able to help. Let me know if you want to discuss."
  },
  "431": {
    "user": "thinkcompany",
    "original_tweet_id": "826458264636387329",
    "reply": "@thinkcompany If you haven't got this sorted yet, I might be able to help :)"
  },
  "432": {
    "user": "huntermaats",
    "original_tweet_id": "826482056829952000",
    "reply": "@huntermaats I'd love to help. Can you explain a little bit more about what you're looking for?"
  },
  "433": {
    "user": "MarthaMayCorton",
    "original_tweet_id": "826956138780512256",
    "reply": "@MarthaMayCorton Are you still looking for help with this?"
  },
  "434": {
    "user": "rosanyeris",
    "original_tweet_id": "826985394285731840",
    "reply": "@rosanyeris If you're still looking, I might be able to help. Let me know if you want to discuss."
  },
  "435": {
    "user": "dmurdah510",
    "original_tweet_id": "827028825447936000",
    "reply": "@dmurdah510 Are you still looking for help with this?"
  },
  "436": {
    "user": "SummerShapePT",
    "original_tweet_id": "827079547086655488",
    "reply": "@SummerShapePT I'd love to help. Can you explain a little bit more about what you're looking for?"
  },
  "437": {
    "user": "AllTimesLo",
    "original_tweet_id": "827148166386610178",
    "reply": "@AllTimesLo Are you still looking for help with this? Let me know if you want to discuss."
  },
  "438": {
    "user": "justthesameolG",
    "original_tweet_id": "827203239779106820",
    "reply": "@justthesameolG If you're still looking, I might be able to help. Let me know if you want to discuss."
  },
  "439": {
    "user": "Floozi69",
    "original_tweet_id": "827213006056493056",
    "reply": "@Floozi69 I'd love to help. Can you explain a little bit more about what you're looking for?"
  },
  "440": {
    "user": "NatashaAtlas_",
    "original_tweet_id": "827263547696566273",
    "reply": "@NatashaAtlas_ I'd love to help. Can you explain a little bit more about what you're looking for?"
  },
  "441": {
    "user": "Taconesia",
    "original_tweet_id": "827549276272197632",
    "reply": "@Taconesia I'd love to help. Can you explain a little bit more about what you're looking for?"
  },
  "442": {
    "user": "BenHorden",
    "original_tweet_id": "827596440348327936",
    "reply": "@BenHorden Are you still looking for help with this? Let me know if you want to discuss."
  },
  "443": {
    "user": "kristiemacris",
    "original_tweet_id": "827598807864995840",
    "reply": "@kristiemacris If you're still looking, I might be able to help. Let me know if you want to discuss."
  },
  "444": {
    "user": "CameronTerez",
    "original_tweet_id": "827651447726678017",
    "reply": "@CameronTerez I'd love to help. Can you explain a little bit more about what you're looking for?"
  },
  "445": {
    "user": "H447_",
    "original_tweet_id": "827875861361721344",
    "reply": "@H447_ Are you still looking for help with this? Let me know if you want to discuss."
  },
  "446": {
    "user": "thatzherr1",
    "original_tweet_id": "828077108052316160",
    "reply": "@thatzherr1 Are you still looking for help with this? Let me know if you want to discuss."
  },
  "447": {
    "user": "OddNahrwold",
    "original_tweet_id": "828177677752336384",
    "reply": "@OddNahrwold If you're still looking, I might be able to help. Let me know if you want to discuss."
  },
  "448": {
    "user": "dan_ven_mar",
    "original_tweet_id": "828270096896421890",
    "reply": "@dan_ven_mar I might be able to help - I've been doing it for around ten years. :)"
  },
  "449": {
    "user": "JohnPapps",
    "original_tweet_id": "828541102177320960",
    "reply": "@JohnPapps Are you still looking for help with this? Let me know if you want to discuss."
  },
  "450": {
    "user": "DanlaLpz",
    "original_tweet_id": "828744681962008576",
    "reply": "@DanlaLpz If you haven't got this sorted yet, I might be able to help :)"
  },
  "451": {
    "user": "devmatt4hire",
    "original_tweet_id": "828795808640299008",
    "reply": "@devmatt4hire Are you still looking for help with this?"
  },
  "452": {
    "user": "KBumpTV",
    "original_tweet_id": "828806948766113792",
    "reply": "@KBumpTV Are you still looking for help with this? Let me know if you want to discuss."
  }
}